{
  "extends": ["@ngxa/rules"],
  "linterOptions": {
    "exclude": ["**/*.spec.ts", "**/test.ts"]
  },
  "rules": {
    "no-any": false,
    "no-unsafe-any": false,
    "min-class-cohesion": false,
    "max-func-args": [true, 4],
    "no-feature-envy": false,
    "rxjs-no-unsafe-scope": false,
    "handle-callback-err": false,
    "no-big-function": false,
    "max-file-line-count": false,
    "rxjs-no-ignored-error": false,
    "rxjs-no-ignored-subscribe": false,
    "no-floating-promises": false
  }
}
